{ "index": { "_id": 0}}
{"@timestamp":"2017-02-20T16:00:54Z","firstname":"Luc","lastname":"Lefevre","formation":"sji-116"}
{ "index": { "_id": 1}}
{"@timestamp":"2017-12-23T04:03:40Z","firstname":"Sabine","lastname":"Maillard","formation":"ELK-01"}
{ "index": { "_id": 2}}
{"@timestamp":"2017-03-10T23:12:43Z","firstname":"Laurent","lastname":"Marchal","formation":"dam-997"}
{ "index": { "_id": 3}}
{"@timestamp":"2017-10-19T01:12:45Z","firstname":"Thomas","lastname":"Chretien","formation":"cep-869"}
{ "index": { "_id": 4}}
{"@timestamp":"2017-10-11T01:48:47Z","firstname":"Kevin","lastname":"Colin","formation":"ELK-01"}
{ "index": { "_id": 5}}
{"@timestamp":"2017-05-05T18:41:06Z","firstname":"Alain","lastname":"Vaillant","formation":"ivb-075"}
{ "index": { "_id": 6}}
{"@timestamp":"2017-06-30T15:41:23Z","firstname":"Gr\u00e9goire","lastname":"Diallo","formation":"uqb-168"}
{ "index": { "_id": 7}}
{"@timestamp":"2017-05-07T04:33:00Z","firstname":"C\u00e9lina","lastname":"Mercier","formation":"wvv-065"}
{ "index": { "_id": 8}}
{"@timestamp":"2017-02-05T05:11:47Z","firstname":"Lucie","lastname":"Rocher","formation":"urv-964"}
{ "index": { "_id": 9}}
{"@timestamp":"2017-06-26T13:48:42Z","firstname":"Th\u00e9odore","lastname":"Girard","formation":"rci-400"}
{ "index": { "_id": 10}}
{"@timestamp":"2017-10-16T15:25:19Z","firstname":"Kevin","lastname":"Roux","formation":"ELK-01"}
{ "index": { "_id": 11}}
{"@timestamp":"2017-03-09T01:07:03Z","firstname":"C\u00e9cile","lastname":"Mendes","formation":"jhk-416"}
{ "index": { "_id": 12}}
{"@timestamp":"2017-07-31T23:05:23Z","firstname":"Kevin","lastname":"Boucher","formation":"qjm-549"}
{ "index": { "_id": 13}}
{"@timestamp":"2017-11-06T15:29:23Z","firstname":"Philippe","lastname":"Grenier","formation":"blp-772"}
{ "index": { "_id": 14}}
{"@timestamp":"2017-10-02T13:41:23Z","firstname":"G\u00e9rard","lastname":"Mary","formation":"ELK-01"}
{ "index": { "_id": 15}}
{"@timestamp":"2017-08-05T19:25:40Z","firstname":"Henri","lastname":"Martin","formation":"mpe-949"}
{ "index": { "_id": 16}}
{"@timestamp":"2017-12-22T15:30:40Z","firstname":"Am\u00e9lie","lastname":"Alves","formation":"meo-865"}
{ "index": { "_id": 17}}
{"@timestamp":"2017-06-14T17:50:56Z","firstname":"Kevin","lastname":"Martin","formation":"vck-239"}
{ "index": { "_id": 18}}
{"@timestamp":"2017-10-05T01:48:48Z","firstname":"Pierre","lastname":"Valentin","formation":"lmf-370"}
{ "index": { "_id": 19}}
{"@timestamp":"2017-10-27T13:05:15Z","firstname":"Georges","lastname":"Gomes","formation":"hqt-914"}
{ "index": { "_id": 20}}
{"@timestamp":"2017-03-30T19:55:20Z","firstname":"Genevi\u00e8ve","lastname":"Morin","formation":"qwx-846"}
{ "index": { "_id": 21}}
{"@timestamp":"2017-04-19T19:03:32Z","firstname":"Val\u00e9rie","lastname":"Gerard","formation":"dem-546"}
{ "index": { "_id": 22}}
{"@timestamp":"2017-11-30T15:24:15Z","firstname":"Franck","lastname":"Durand","formation":"ELK-01"}
{ "index": { "_id": 23}}
{"@timestamp":"2017-10-03T07:08:29Z","firstname":"Laurent","lastname":"Joly","formation":"kxu-667"}
{ "index": { "_id": 24}}
{"@timestamp":"2017-10-24T18:59:48Z","firstname":"Kevin","lastname":"Dijoux","formation":"xpf-844"}
{ "index": { "_id": 25}}
{"@timestamp":"2017-08-02T04:32:56Z","firstname":"Sophie","lastname":"Le Goff","formation":"afa-747"}
{ "index": { "_id": 26}}
{"@timestamp":"2017-08-29T08:01:57Z","firstname":"Christophe","lastname":"Dijoux","formation":"ELK-01"}
{ "index": { "_id": 27}}
{"@timestamp":"2017-08-02T20:17:53Z","firstname":"Chantal","lastname":"Cohen","formation":"ELK-01"}
{ "index": { "_id": 28}}
{"@timestamp":"2017-05-25T00:30:58Z","firstname":"Michelle","lastname":"Pottier","formation":"wil-486"}
{ "index": { "_id": 29}}
{"@timestamp":"2017-01-28T23:57:25Z","firstname":"\u00c9mile","lastname":"Marques","formation":"ELK-01"}
{ "index": { "_id": 30}}
{"@timestamp":"2017-08-26T00:12:41Z","firstname":"Simone","lastname":"Lefevre","formation":"ELK-01"}
{ "index": { "_id": 31}}
{"@timestamp":"2017-05-02T15:20:53Z","firstname":"Bertrand","lastname":"Menard","formation":"ELK-01"}
{ "index": { "_id": 32}}
{"@timestamp":"2017-10-22T11:59:52Z","firstname":"Claudine","lastname":"Brunet","formation":"xlc-521"}
{ "index": { "_id": 33}}
{"@timestamp":"2017-04-16T13:17:00Z","firstname":"Claire","lastname":"Allard","formation":"ELK-01"}
{ "index": { "_id": 34}}
{"@timestamp":"2017-10-25T18:19:54Z","firstname":"Kevin","lastname":"Benoit","formation":"zrr-772"}
{ "index": { "_id": 35}}
{"@timestamp":"2017-07-31T04:03:40Z","firstname":"Thierry","lastname":"Aubry","formation":"bcp-925"}
{ "index": { "_id": 36}}
{"@timestamp":"2017-06-03T06:20:43Z","firstname":"Jacqueline","lastname":"Martin","formation":"ypc-989"}
{ "index": { "_id": 37}}
{"@timestamp":"2017-07-08T13:13:20Z","firstname":"Suzanne","lastname":"Deschamps","formation":"ELK-01"}
{ "index": { "_id": 38}}
{"@timestamp":"2017-04-04T02:55:22Z","firstname":"Fran\u00e7oise","lastname":"Martins","formation":"dte-917"}
{ "index": { "_id": 39}}
{"@timestamp":"2017-01-10T21:31:53Z","firstname":"Gabriel","lastname":"Maillard","formation":"ELK-01"}
{ "index": { "_id": 40}}
{"@timestamp":"2017-09-27T21:00:44Z","firstname":"Alexandria","lastname":"Weiss","formation":"ELK-01"}
{ "index": { "_id": 41}}
{"@timestamp":"2017-08-26T20:26:55Z","firstname":"Agn\u00e8s","lastname":"Morvan","formation":"wvg-776"}
{ "index": { "_id": 42}}
{"@timestamp":"2017-10-04T23:54:22Z","firstname":"Fran\u00e7oise","lastname":"Clerc","formation":"zvn-762"}
{ "index": { "_id": 43}}
{"@timestamp":"2017-07-21T17:30:08Z","firstname":"Fr\u00e9d\u00e9ric","lastname":"Lejeune","formation":"bvh-025"}
{ "index": { "_id": 44}}
{"@timestamp":"2017-09-15T03:37:56Z","firstname":"Thibaut","lastname":"Guibert","formation":"ELK-01"}
{ "index": { "_id": 45}}
{"@timestamp":"2017-06-03T03:50:01Z","firstname":"Adrien","lastname":"De Oliveira","formation":"ELK-01"}
{ "index": { "_id": 46}}
{"@timestamp":"2017-11-18T13:16:40Z","firstname":"Catherine","lastname":"Guyon","formation":"fnj-921"}
{ "index": { "_id": 47}}
{"@timestamp":"2017-07-29T21:26:11Z","firstname":"Th\u00e9ophile","lastname":"Gillet","formation":"kue-498"}
{ "index": { "_id": 48}}
{"@timestamp":"2017-11-10T07:41:18Z","firstname":"Pauline","lastname":"Joly","formation":"ELK-01"}
{ "index": { "_id": 49}}
{"@timestamp":"2017-02-01T02:27:06Z","firstname":"Patricia","lastname":"Blot","formation":"ELK-01"}
{ "index": { "_id": 50}}
{"@timestamp":"2017-11-10T04:12:35Z","firstname":"Nicolas","lastname":"Bonneau","formation":"ELK-01"}
{ "index": { "_id": 51}}
{"@timestamp":"2017-12-02T22:33:28Z","firstname":"Doroth\u00e9e","lastname":"Martin","formation":"wzl-500"}
{ "index": { "_id": 52}}
{"@timestamp":"2017-12-16T08:54:45Z","firstname":"Jacques","lastname":"Leleu","formation":"xle-413"}
{ "index": { "_id": 53}}
{"@timestamp":"2017-08-09T05:28:43Z","firstname":"Jacqueline","lastname":"Boulanger","formation":"fez-362"}
{ "index": { "_id": 54}}
{"@timestamp":"2017-09-13T11:58:06Z","firstname":"J\u00e9r\u00f4me","lastname":"Wagner","formation":"xxl-680"}
{ "index": { "_id": 55}}
{"@timestamp":"2017-07-10T05:45:45Z","firstname":"Aim\u00e9","lastname":"Vaillant","formation":"iej-824"}
{ "index": { "_id": 56}}
{"@timestamp":"2017-04-29T05:31:25Z","firstname":"Kevin","lastname":"Perrin","formation":"auo-649"}
{ "index": { "_id": 57}}
{"@timestamp":"2017-05-20T00:39:14Z","firstname":"Thibault","lastname":"Arnaud","formation":"ELK-01"}
{ "index": { "_id": 58}}
{"@timestamp":"2017-03-30T00:12:52Z","firstname":"Nicole","lastname":"Martin","formation":"qzk-166"}
{ "index": { "_id": 59}}
{"@timestamp":"2017-11-29T14:59:07Z","firstname":"Catherine","lastname":"Raynaud","formation":"fwd-796"}
{ "index": { "_id": 60}}
{"@timestamp":"2017-08-27T16:15:29Z","firstname":"Jeanne","lastname":"Thibault","formation":"ELK-01"}
{ "index": { "_id": 61}}
{"@timestamp":"2017-09-08T01:24:41Z","firstname":"Alice","lastname":"Lopes","formation":"dyt-263"}
{ "index": { "_id": 62}}
{"@timestamp":"2017-11-19T02:02:42Z","firstname":"Zo\u00e9","lastname":"Boutin","formation":"ELK-01"}
{ "index": { "_id": 63}}
{"@timestamp":"2017-02-23T10:10:47Z","firstname":"C\u00e9line","lastname":"Seguin","formation":"jjj-931"}
{ "index": { "_id": 64}}
{"@timestamp":"2017-10-09T12:26:26Z","firstname":"Nathalie","lastname":"Hardy","formation":"ELK-01"}
{ "index": { "_id": 65}}
{"@timestamp":"2017-05-15T22:54:52Z","firstname":"Paulette","lastname":"Martineau","formation":"jjh-040"}
{ "index": { "_id": 66}}
{"@timestamp":"2017-10-09T02:53:18Z","firstname":"Raymond","lastname":"Hardy","formation":"dci-411"}
{ "index": { "_id": 67}}
{"@timestamp":"2017-01-20T09:05:37Z","firstname":"Julien","lastname":"Laine","formation":"eot-702"}
{ "index": { "_id": 68}}
{"@timestamp":"2017-11-29T06:20:44Z","firstname":"J\u00e9r\u00f4me","lastname":"David","formation":"kbo-975"}
{ "index": { "_id": 69}}
{"@timestamp":"2017-11-03T19:51:17Z","firstname":"Marc","lastname":"Besnard","formation":"dnw-835"}
{ "index": { "_id": 70}}
{"@timestamp":"2017-06-13T05:53:59Z","firstname":"Jules","lastname":"Vasseur","formation":"bzc-750"}
{ "index": { "_id": 71}}
{"@timestamp":"2017-07-29T04:11:48Z","firstname":"J\u00e9r\u00f4me","lastname":"Le Roux","formation":"mex-346"}
{ "index": { "_id": 72}}
{"@timestamp":"2017-05-11T04:11:47Z","firstname":"Philippe","lastname":"Marion","formation":"lzh-980"}
{ "index": { "_id": 73}}
{"@timestamp":"2017-09-19T05:25:41Z","firstname":"Dominique","lastname":"Hernandez","formation":"ydi-568"}
{ "index": { "_id": 74}}
{"@timestamp":"2017-09-10T04:11:42Z","firstname":"Richard","lastname":"Loiseau","formation":"ELK-01"}
{ "index": { "_id": 75}}
{"@timestamp":"2017-04-14T15:26:07Z","firstname":"In\u00e8s","lastname":"Voisin","formation":"xek-136"}
{ "index": { "_id": 76}}
{"@timestamp":"2017-07-09T07:06:36Z","firstname":"Charles","lastname":"Germain","formation":"gil-000"}
{ "index": { "_id": 77}}
{"@timestamp":"2017-09-05T03:18:09Z","firstname":"Zacharie","lastname":"Mahe","formation":"ELK-01"}
{ "index": { "_id": 78}}
{"@timestamp":"2017-04-16T06:33:38Z","firstname":"Kevin","lastname":"Lucas","formation":"hcl-011"}
{ "index": { "_id": 79}}
{"@timestamp":"2017-02-26T04:09:36Z","firstname":"Augustin","lastname":"Lamy","formation":"oac-766"}
{ "index": { "_id": 80}}
{"@timestamp":"2017-12-17T07:18:46Z","firstname":"Eug\u00e8ne","lastname":"Levy","formation":"imw-243"}
{ "index": { "_id": 81}}
{"@timestamp":"2017-07-16T05:05:34Z","firstname":"Anne","lastname":"Guillaume","formation":"ywp-264"}
{ "index": { "_id": 82}}
{"@timestamp":"2017-09-06T19:14:02Z","firstname":"Philippe","lastname":"Paris","formation":"hun-212"}
{ "index": { "_id": 83}}
{"@timestamp":"2017-06-13T09:01:53Z","firstname":"Kevin","lastname":"Gregoire","formation":"ius-648"}
{ "index": { "_id": 84}}
{"@timestamp":"2017-09-01T07:57:45Z","firstname":"Suzanne","lastname":"Roche","formation":"ppu-263"}
{ "index": { "_id": 85}}
{"@timestamp":"2017-08-22T01:49:35Z","firstname":"Suzanne","lastname":"Masson","formation":"nfj-003"}
{ "index": { "_id": 86}}
{"@timestamp":"2017-05-09T12:40:57Z","firstname":"Anouk","lastname":"Jacquet","formation":"woe-819"}
{ "index": { "_id": 87}}
{"@timestamp":"2017-05-03T21:12:15Z","firstname":"Denise","lastname":"Gosselin","formation":"stg-634"}
{ "index": { "_id": 88}}
{"@timestamp":"2017-09-19T03:50:13Z","firstname":"Auguste","lastname":"Langlois","formation":"ELK-01"}
{ "index": { "_id": 89}}
{"@timestamp":"2017-05-25T11:32:27Z","firstname":"Thomas","lastname":"Marques","formation":"jzi-507"}
{ "index": { "_id": 90}}
{"@timestamp":"2017-02-17T10:24:00Z","firstname":"Thibaut","lastname":"Martin","formation":"blt-438"}
{ "index": { "_id": 91}}
{"@timestamp":"2017-01-11T16:31:01Z","firstname":"Beno\u00eet","lastname":"Martin","formation":"tkx-763"}
{ "index": { "_id": 92}}
{"@timestamp":"2017-12-16T21:02:28Z","firstname":"Kevin","lastname":"Maury","formation":"xph-726"}
{ "index": { "_id": 93}}
{"@timestamp":"2017-03-22T22:52:52Z","firstname":"No\u00ebl","lastname":"Devaux","formation":"ixj-939"}
{ "index": { "_id": 94}}
{"@timestamp":"2017-09-28T17:14:32Z","firstname":"David","lastname":"Bourgeois","formation":"evh-257"}
{ "index": { "_id": 95}}
{"@timestamp":"2017-09-01T16:13:55Z","firstname":"Paul","lastname":"Richard","formation":"yjl-535"}
{ "index": { "_id": 96}}
{"@timestamp":"2017-11-24T00:04:34Z","firstname":"Thomas","lastname":"Faivre","formation":"gez-086"}
{ "index": { "_id": 97}}
{"@timestamp":"2017-10-16T18:29:16Z","firstname":"Kevin","lastname":"Lemoine","formation":"swk-598"}
{ "index": { "_id": 98}}
{"@timestamp":"2017-04-16T03:48:04Z","firstname":"Gabriel","lastname":"Martin","formation":"xmi-053"}
{ "index": { "_id": 99}}
{"@timestamp":"2017-05-18T09:45:03Z","firstname":"Ad\u00e8le","lastname":"Leblanc","formation":"ogp-830"}
{ "index": { "_id": 100}}
{"@timestamp":"2017-10-03T23:31:05Z","firstname":"Th\u00e9odore","lastname":"Henry","formation":"sav-097"}
{ "index": { "_id": 101}}
{"@timestamp":"2017-12-14T08:13:22Z","firstname":"Kevin","lastname":"Denis","formation":"rst-543"}
{ "index": { "_id": 102}}
{"@timestamp":"2017-02-03T00:55:02Z","firstname":"Georges","lastname":"Riviere","formation":"ELK-01"}
{ "index": { "_id": 103}}
{"@timestamp":"2017-04-02T19:28:27Z","firstname":"Pierre","lastname":"Weber","formation":"pht-695"}
{ "index": { "_id": 104}}
{"@timestamp":"2017-04-21T23:38:03Z","firstname":"Josette","lastname":"Martin","formation":"aai-002"}
{ "index": { "_id": 105}}
{"@timestamp":"2017-08-01T22:02:51Z","firstname":"Kevin","lastname":"Charpentier","formation":"bbf-481"}
{ "index": { "_id": 106}}
{"@timestamp":"2017-12-15T13:03:40Z","firstname":"Arthur","lastname":"Gerard","formation":"ELK-01"}
{ "index": { "_id": 107}}
{"@timestamp":"2017-05-10T03:06:33Z","firstname":"Chantal","lastname":"Delahaye","formation":"lrm-596"}
{ "index": { "_id": 108}}
{"@timestamp":"2017-10-31T20:13:35Z","firstname":"Kevin","lastname":"Valentin","formation":"eke-359"}
{ "index": { "_id": 109}}
{"@timestamp":"2017-03-16T14:03:00Z","firstname":"Alexandre","lastname":"Andre","formation":"byn-354"}
{ "index": { "_id": 110}}
{"@timestamp":"2017-10-09T02:40:30Z","firstname":"Ad\u00e9la\u00efde","lastname":"Guillou","formation":"mly-188"}
{ "index": { "_id": 111}}
{"@timestamp":"2017-03-20T07:08:19Z","firstname":"Kevin","lastname":"Blin","formation":"isa-895"}
{ "index": { "_id": 112}}
{"@timestamp":"2017-10-14T16:32:39Z","firstname":"Alexandre","lastname":"Martin","formation":"asy-101"}
{ "index": { "_id": 113}}
{"@timestamp":"2017-05-05T19:33:02Z","firstname":"Chantal","lastname":"Bigot","formation":"qez-823"}
{ "index": { "_id": 114}}
{"@timestamp":"2017-04-26T17:52:16Z","firstname":"Aim\u00e9e","lastname":"Evrard","formation":"ELK-01"}
{ "index": { "_id": 115}}
{"@timestamp":"2017-06-23T10:06:56Z","firstname":"William","lastname":"Loiseau","formation":"apj-124"}
{ "index": { "_id": 116}}
{"@timestamp":"2017-04-11T00:55:14Z","firstname":"Alexandria","lastname":"Martin","formation":"orj-460"}
{ "index": { "_id": 117}}
{"@timestamp":"2017-11-02T02:57:47Z","firstname":"Raymond","lastname":"Gaudin","formation":"dyp-207"}
{ "index": { "_id": 118}}
{"@timestamp":"2017-07-24T12:14:02Z","firstname":"Hortense","lastname":"Peltier","formation":"tfc-433"}
{ "index": { "_id": 119}}
{"@timestamp":"2017-07-07T07:57:19Z","firstname":"Laurent","lastname":"Texier","formation":"ELK-01"}
{ "index": { "_id": 120}}
{"@timestamp":"2017-09-16T09:48:18Z","firstname":"Luc","lastname":"Lecoq","formation":"hqe-318"}
{ "index": { "_id": 121}}
{"@timestamp":"2017-11-25T20:39:51Z","firstname":"Thierry","lastname":"Hoarau","formation":"jiz-258"}
{ "index": { "_id": 122}}
{"@timestamp":"2017-03-19T08:21:20Z","firstname":"Benjamin","lastname":"Chretien","formation":"mfq-234"}
{ "index": { "_id": 123}}
{"@timestamp":"2017-08-05T06:47:56Z","firstname":"Julie","lastname":"Arnaud","formation":"xge-210"}
{ "index": { "_id": 124}}
{"@timestamp":"2017-07-02T02:12:09Z","firstname":"G\u00e9rard","lastname":"Turpin","formation":"azv-186"}
{ "index": { "_id": 125}}
{"@timestamp":"2017-03-29T01:01:22Z","firstname":"Kevin","lastname":"Martin","formation":"zfi-553"}
{ "index": { "_id": 126}}
{"@timestamp":"2017-12-22T16:14:06Z","firstname":"St\u00e9phanie","lastname":"Verdier","formation":"ELK-01"}
{ "index": { "_id": 127}}
{"@timestamp":"2017-08-21T06:20:12Z","firstname":"Raymond","lastname":"Brunet","formation":"zkc-052"}
{ "index": { "_id": 128}}
{"@timestamp":"2017-10-27T09:29:46Z","firstname":"Kevin","lastname":"Delannoy","formation":"pyu-351"}
{ "index": { "_id": 129}}
{"@timestamp":"2017-05-28T00:31:42Z","firstname":"Marguerite","lastname":"Chartier","formation":"ydm-356"}
{ "index": { "_id": 130}}
{"@timestamp":"2017-07-23T16:53:04Z","firstname":"Lucas","lastname":"Bernier","formation":"boh-343"}
{ "index": { "_id": 131}}
{"@timestamp":"2017-05-25T08:57:28Z","firstname":"Kevin","lastname":"Lucas","formation":"iqv-154"}
{ "index": { "_id": 132}}
{"@timestamp":"2017-06-06T01:57:22Z","firstname":"Bertrand","lastname":"Martin","formation":"cdr-953"}
{ "index": { "_id": 133}}
{"@timestamp":"2017-12-10T05:08:10Z","firstname":"Xavier","lastname":"Navarro","formation":"fhs-966"}
{ "index": { "_id": 134}}
{"@timestamp":"2017-04-08T00:59:15Z","firstname":"Th\u00e9r\u00e8se","lastname":"Le Roux","formation":"zcc-420"}
{ "index": { "_id": 135}}
{"@timestamp":"2017-01-10T01:29:02Z","firstname":"Caroline","lastname":"Jacques","formation":"tcz-631"}
{ "index": { "_id": 136}}
{"@timestamp":"2017-10-12T06:23:22Z","firstname":"Alex","lastname":"Rodrigues","formation":"kdy-274"}
{ "index": { "_id": 137}}
{"@timestamp":"2017-06-25T08:04:11Z","firstname":"Kevin","lastname":"Martin","formation":"ppo-040"}
{ "index": { "_id": 138}}
{"@timestamp":"2017-06-15T19:58:36Z","firstname":"Emmanuelle","lastname":"Da Costa","formation":"ekd-915"}
{ "index": { "_id": 139}}
{"@timestamp":"2017-12-09T06:28:58Z","firstname":"Kevin","lastname":"Marechal","formation":"kvi-822"}
{ "index": { "_id": 140}}
{"@timestamp":"2017-02-08T20:43:06Z","firstname":"Th\u00e9ophile","lastname":"Maillot","formation":"pvf-225"}
{ "index": { "_id": 141}}
{"@timestamp":"2017-04-02T00:32:33Z","firstname":"Suzanne","lastname":"Mallet","formation":"ELK-01"}
{ "index": { "_id": 142}}
{"@timestamp":"2017-08-24T05:48:22Z","firstname":"Nicolas","lastname":"Martin","formation":"nla-761"}
{ "index": { "_id": 143}}
{"@timestamp":"2017-11-28T00:37:13Z","firstname":"C\u00e9cile","lastname":"Bouvier","formation":"ELK-01"}
{ "index": { "_id": 144}}
{"@timestamp":"2017-05-07T05:44:22Z","firstname":"Kevin","lastname":"Pierre","formation":"ELK-01"}
{ "index": { "_id": 145}}
{"@timestamp":"2017-10-23T10:06:42Z","firstname":"Tristan","lastname":"Dumont","formation":"hgi-636"}
{ "index": { "_id": 146}}
{"@timestamp":"2017-08-28T17:44:13Z","firstname":"Martin","lastname":"Blondel","formation":"irh-981"}
{ "index": { "_id": 147}}
{"@timestamp":"2017-02-22T13:27:06Z","firstname":"Anne","lastname":"Martin","formation":"ELK-01"}
{ "index": { "_id": 148}}
{"@timestamp":"2017-08-06T15:20:01Z","firstname":"Paulette","lastname":"Collet","formation":"eem-296"}
{ "index": { "_id": 149}}
{"@timestamp":"2017-03-19T15:16:04Z","firstname":"Dominique","lastname":"Giraud","formation":"cmm-387"}
{ "index": { "_id": 150}}
{"@timestamp":"2017-10-21T02:45:33Z","firstname":"Kevin","lastname":"Martin","formation":"ELK-01"}
{ "index": { "_id": 151}}
{"@timestamp":"2017-05-09T22:27:15Z","firstname":"Ad\u00e8le","lastname":"Marchal","formation":"itk-380"}
{ "index": { "_id": 152}}
{"@timestamp":"2017-10-13T01:52:54Z","firstname":"Augustin","lastname":"Devaux","formation":"ELK-01"}
{ "index": { "_id": 153}}
{"@timestamp":"2017-04-14T21:23:40Z","firstname":"\u00c9lisabeth","lastname":"Lebreton","formation":"xfq-452"}
{ "index": { "_id": 154}}
{"@timestamp":"2017-03-11T14:36:20Z","firstname":"Sylvie","lastname":"Maillot","formation":"ydr-329"}
{ "index": { "_id": 155}}
{"@timestamp":"2017-08-25T07:29:43Z","firstname":"Michelle","lastname":"Ramos","formation":"cch-646"}
{ "index": { "_id": 156}}
{"@timestamp":"2017-10-30T05:11:28Z","firstname":"Roger","lastname":"Leroy","formation":"gbg-856"}
{ "index": { "_id": 157}}
{"@timestamp":"2017-06-11T09:10:37Z","firstname":"Kevin","lastname":"Boucher","formation":"mwy-936"}
{ "index": { "_id": 158}}
{"@timestamp":"2017-02-20T07:06:02Z","firstname":"Lucie","lastname":"Bouvier","formation":"tha-440"}
{ "index": { "_id": 159}}
{"@timestamp":"2017-08-19T09:10:56Z","firstname":"Michelle","lastname":"Pinto","formation":"ELK-01"}
{ "index": { "_id": 160}}
{"@timestamp":"2017-02-23T21:11:02Z","firstname":"Patrick","lastname":"Richard","formation":"ELK-01"}
{ "index": { "_id": 161}}
{"@timestamp":"2017-09-14T14:02:21Z","firstname":"Kevin","lastname":"Leblanc","formation":"esi-048"}
{ "index": { "_id": 162}}
{"@timestamp":"2017-11-26T06:19:49Z","firstname":"Beno\u00eet","lastname":"Marechal","formation":"pnh-055"}
{ "index": { "_id": 163}}
{"@timestamp":"2017-10-03T14:35:30Z","firstname":"Jacqueline","lastname":"Martin","formation":"vif-615"}
{ "index": { "_id": 164}}
{"@timestamp":"2017-04-19T13:33:25Z","firstname":"Pierre","lastname":"Jacquot","formation":"ann-939"}
{ "index": { "_id": 165}}
{"@timestamp":"2017-03-18T01:11:34Z","firstname":"S\u00e9bastien","lastname":"Dupuy","formation":"ema-988"}
{ "index": { "_id": 166}}
{"@timestamp":"2017-05-05T05:28:08Z","firstname":"Patrick","lastname":"Boulanger","formation":"vcu-667"}
{ "index": { "_id": 167}}
{"@timestamp":"2017-06-09T03:16:27Z","firstname":"Alix","lastname":"Nguyen","formation":"qlz-976"}
{ "index": { "_id": 168}}
{"@timestamp":"2017-10-26T01:20:34Z","firstname":"Dominique","lastname":"Martin","formation":"wvk-210"}
{ "index": { "_id": 169}}
{"@timestamp":"2017-11-09T23:46:39Z","firstname":"Marianne","lastname":"Bouchet","formation":"fzi-594"}
{ "index": { "_id": 170}}
{"@timestamp":"2017-08-24T01:56:05Z","firstname":"\u00c9mile","lastname":"Leroy","formation":"blx-451"}
{ "index": { "_id": 171}}
{"@timestamp":"2017-10-12T00:07:15Z","firstname":"Henri","lastname":"Lebreton","formation":"ELK-01"}
{ "index": { "_id": 172}}
{"@timestamp":"2017-09-28T20:12:29Z","firstname":"Oc\u00e9ane","lastname":"Bouchet","formation":"ELK-01"}
{ "index": { "_id": 173}}
{"@timestamp":"2017-02-13T04:47:45Z","firstname":"David","lastname":"Meunier","formation":"dah-143"}
{ "index": { "_id": 174}}
{"@timestamp":"2017-05-15T01:09:29Z","firstname":"Corinne","lastname":"Valette","formation":"lfc-265"}
{ "index": { "_id": 175}}
{"@timestamp":"2017-08-18T17:56:07Z","firstname":"Thomas","lastname":"Martin","formation":"ykx-394"}
{ "index": { "_id": 176}}
{"@timestamp":"2017-03-28T00:09:40Z","firstname":"Suzanne","lastname":"Techer","formation":"kpb-003"}
{ "index": { "_id": 177}}
{"@timestamp":"2017-08-25T21:44:30Z","firstname":"Th\u00e9ophile","lastname":"Da Costa","formation":"xjf-843"}
{ "index": { "_id": 178}}
{"@timestamp":"2017-12-27T05:03:35Z","firstname":"Alex","lastname":"Gerard","formation":"ELK-01"}
{ "index": { "_id": 179}}
{"@timestamp":"2017-04-10T01:53:05Z","firstname":"Christine","lastname":"Imbert","formation":"prc-195"}
{ "index": { "_id": 180}}
{"@timestamp":"2017-11-07T01:59:43Z","firstname":"Laurence","lastname":"Allard","formation":"ELK-01"}
{ "index": { "_id": 181}}
{"@timestamp":"2017-06-27T03:26:04Z","firstname":"Christine","lastname":"Perrier","formation":"crx-850"}
{ "index": { "_id": 182}}
{"@timestamp":"2017-05-08T04:27:45Z","firstname":"Julie","lastname":"Gonzalez","formation":"cbz-181"}
{ "index": { "_id": 183}}
{"@timestamp":"2017-06-10T03:47:45Z","firstname":"Suzanne","lastname":"Guillou","formation":"ELK-01"}
{ "index": { "_id": 184}}
{"@timestamp":"2017-09-14T19:38:38Z","firstname":"Raymond","lastname":"Guyon","formation":"shl-146"}
{ "index": { "_id": 185}}
{"@timestamp":"2017-03-10T09:23:09Z","firstname":"Paul","lastname":"Jacob","formation":"loj-494"}
{ "index": { "_id": 186}}
{"@timestamp":"2017-11-07T22:30:04Z","firstname":"Benjamin","lastname":"Grenier","formation":"ibk-468"}
{ "index": { "_id": 187}}
{"@timestamp":"2017-03-24T08:13:16Z","firstname":"Daniel","lastname":"Gros","formation":"noz-329"}
{ "index": { "_id": 188}}
{"@timestamp":"2017-11-22T07:59:01Z","firstname":"Gilbert","lastname":"Goncalves","formation":"udo-676"}
{ "index": { "_id": 189}}
{"@timestamp":"2017-12-21T17:04:28Z","firstname":"Vincent","lastname":"Rolland","formation":"wfm-814"}
{ "index": { "_id": 190}}
{"@timestamp":"2017-01-12T03:57:13Z","firstname":"Olivie","lastname":"Fouquet","formation":"age-537"}
{ "index": { "_id": 191}}
{"@timestamp":"2017-10-07T20:03:00Z","firstname":"Julien","lastname":"Martin","formation":"hfe-673"}
{ "index": { "_id": 192}}
{"@timestamp":"2017-01-02T14:54:30Z","firstname":"Kevin","lastname":"Godard","formation":"oot-487"}
{ "index": { "_id": 193}}
{"@timestamp":"2017-11-21T19:49:38Z","firstname":"Ad\u00e8le","lastname":"Dupre","formation":"fpt-576"}
{ "index": { "_id": 194}}
{"@timestamp":"2017-06-29T20:07:15Z","firstname":"Kevin","lastname":"Delahaye","formation":"knk-720"}
{ "index": { "_id": 195}}
{"@timestamp":"2017-07-23T01:42:39Z","firstname":"Claude","lastname":"Pereira","formation":"ELK-01"}
{ "index": { "_id": 196}}
{"@timestamp":"2017-11-24T14:32:06Z","firstname":"Philippe","lastname":"Techer","formation":"vrv-462"}
{ "index": { "_id": 197}}
{"@timestamp":"2017-04-27T17:35:42Z","firstname":"Laetitia","lastname":"Mace","formation":"xdp-949"}
{ "index": { "_id": 198}}
{"@timestamp":"2017-05-27T21:17:15Z","firstname":"Agn\u00e8s","lastname":"Mendes","formation":"ELK-01"}
{ "index": { "_id": 199}}
{"@timestamp":"2017-09-12T23:34:18Z","firstname":"Odette","lastname":"Merle","formation":"pek-395"}
{ "index": { "_id": 200}}
{"@timestamp":"2017-02-05T00:05:04Z","firstname":"Danielle","lastname":"Gerard","formation":"uvh-267"}
{ "index": { "_id": 201}}
{"@timestamp":"2017-05-31T10:38:39Z","firstname":"Kevin","lastname":"Pottier","formation":"opx-420"}
{ "index": { "_id": 202}}
{"@timestamp":"2017-10-29T06:19:13Z","firstname":"Corinne","lastname":"Leger","formation":"swm-093"}
{ "index": { "_id": 203}}
{"@timestamp":"2017-04-02T18:22:55Z","firstname":"C\u00e9cile","lastname":"Lagarde","formation":"eqp-991"}
{ "index": { "_id": 204}}
{"@timestamp":"2017-11-22T15:05:37Z","firstname":"Val\u00e9rie","lastname":"De Sousa","formation":"vkf-196"}
{ "index": { "_id": 205}}
{"@timestamp":"2017-03-01T20:33:08Z","firstname":"Caroline","lastname":"Pasquier","formation":"ahd-706"}
{ "index": { "_id": 206}}
{"@timestamp":"2017-09-19T02:09:38Z","firstname":"Lucas","lastname":"Martin","formation":"ELK-01"}
{ "index": { "_id": 207}}
{"@timestamp":"2017-12-19T02:15:22Z","firstname":"P\u00e9n\u00e9lope","lastname":"Pinto","formation":"reg-675"}
{ "index": { "_id": 208}}
{"@timestamp":"2017-07-29T10:37:45Z","firstname":"Philippe","lastname":"Thibault","formation":"ymi-122"}
{ "index": { "_id": 209}}
{"@timestamp":"2017-06-18T09:26:45Z","firstname":"Marthe","lastname":"Fontaine","formation":"zdg-196"}
{ "index": { "_id": 210}}
{"@timestamp":"2017-06-26T21:12:29Z","firstname":"Kevin","lastname":"Techer","formation":"ELK-01"}
{ "index": { "_id": 211}}
{"@timestamp":"2017-05-26T23:46:24Z","firstname":"Anastasie","lastname":"Verdier","formation":"uti-087"}
{ "index": { "_id": 212}}
{"@timestamp":"2017-12-04T20:38:54Z","firstname":"Alphonse","lastname":"Cordier","formation":"ELK-01"}
{ "index": { "_id": 213}}
{"@timestamp":"2017-06-04T22:33:25Z","firstname":"Kevin","lastname":"Courtois","formation":"ELK-01"}
{ "index": { "_id": 214}}
{"@timestamp":"2017-07-23T22:10:14Z","firstname":"Laure","lastname":"Martin","formation":"ksp-204"}
{ "index": { "_id": 215}}
{"@timestamp":"2017-02-08T16:42:56Z","firstname":"Suzanne","lastname":"Chauvin","formation":"yhh-013"}
{ "index": { "_id": 216}}
{"@timestamp":"2017-06-20T18:19:02Z","firstname":"Th\u00e9ophile","lastname":"Vasseur","formation":"zmf-242"}
{ "index": { "_id": 217}}
{"@timestamp":"2017-11-07T12:05:31Z","firstname":"Denis","lastname":"Martin","formation":"ELK-01"}
{ "index": { "_id": 218}}
{"@timestamp":"2017-02-11T12:33:55Z","firstname":"Aurore","lastname":"Coste","formation":"gin-323"}
{ "index": { "_id": 219}}
{"@timestamp":"2017-04-26T05:17:21Z","firstname":"Laurence","lastname":"Gros","formation":"bjw-723"}
{ "index": { "_id": 220}}
{"@timestamp":"2017-02-24T14:49:37Z","firstname":"Alexandrie","lastname":"Gillet","formation":"jxz-335"}
{ "index": { "_id": 221}}
{"@timestamp":"2017-01-25T15:15:11Z","firstname":"Oc\u00e9ane","lastname":"Gallet","formation":"fgk-120"}
{ "index": { "_id": 222}}
{"@timestamp":"2017-09-07T11:48:44Z","firstname":"Kevin","lastname":"Charpentier","formation":"riz-338"}
{ "index": { "_id": 223}}
{"@timestamp":"2017-12-01T14:44:56Z","firstname":"Gilbert","lastname":"Lejeune","formation":"naj-677"}
{ "index": { "_id": 224}}
{"@timestamp":"2017-02-27T18:40:25Z","firstname":"H\u00e9l\u00e8ne","lastname":"Carre","formation":"lld-901"}
{ "index": { "_id": 225}}
{"@timestamp":"2017-07-16T03:24:36Z","firstname":"Marine","lastname":"Delaunay","formation":"ELK-01"}
{ "index": { "_id": 226}}
{"@timestamp":"2017-07-17T08:10:13Z","firstname":"Kevin","lastname":"Potier","formation":"dat-979"}
{ "index": { "_id": 227}}
{"@timestamp":"2017-03-19T18:19:16Z","firstname":"\u00c9mile","lastname":"Charpentier","formation":"ELK-01"}
{ "index": { "_id": 228}}
{"@timestamp":"2017-06-10T16:43:57Z","firstname":"Hortense","lastname":"Delorme","formation":"ELK-01"}
{ "index": { "_id": 229}}
{"@timestamp":"2017-06-20T11:14:33Z","firstname":"Josette","lastname":"Pages","formation":"wag-074"}
{ "index": { "_id": 230}}
{"@timestamp":"2017-03-19T02:37:50Z","firstname":"St\u00e9phane","lastname":"Denis","formation":"wqy-268"}
{ "index": { "_id": 231}}
{"@timestamp":"2017-09-14T01:06:54Z","firstname":"Victor","lastname":"Martin","formation":"cdr-463"}
{ "index": { "_id": 232}}
{"@timestamp":"2017-09-26T15:08:31Z","firstname":"Catherine","lastname":"Brunel","formation":"jxo-969"}
{ "index": { "_id": 233}}
{"@timestamp":"2017-04-15T14:01:04Z","firstname":"Kevin","lastname":"Lacombe","formation":"wfv-855"}
{ "index": { "_id": 234}}
{"@timestamp":"2017-10-12T08:03:33Z","firstname":"Aurore","lastname":"Clement","formation":"hjn-191"}
{ "index": { "_id": 235}}
{"@timestamp":"2017-06-13T03:25:17Z","firstname":"Isaac","lastname":"Girard","formation":"edp-090"}
{ "index": { "_id": 236}}
{"@timestamp":"2017-09-01T20:32:50Z","firstname":"V\u00e9ronique","lastname":"Cordier","formation":"uzi-839"}
{ "index": { "_id": 237}}
{"@timestamp":"2017-04-10T21:23:25Z","firstname":"Anouk","lastname":"Pichon","formation":"fon-277"}
{ "index": { "_id": 238}}
{"@timestamp":"2017-05-27T03:50:08Z","firstname":"Dominique","lastname":"Maurice","formation":"gss-956"}
{ "index": { "_id": 239}}
{"@timestamp":"2017-12-29T10:48:56Z","firstname":"Paul","lastname":"Bonnet","formation":"tmc-152"}
{ "index": { "_id": 240}}
{"@timestamp":"2017-09-17T18:43:41Z","firstname":"Margot","lastname":"Munoz","formation":"wqw-834"}
{ "index": { "_id": 241}}
{"@timestamp":"2017-06-30T17:14:55Z","firstname":"Zacharie","lastname":"Perret","formation":"qll-337"}
{ "index": { "_id": 242}}
{"@timestamp":"2017-08-14T03:28:37Z","firstname":"Thibaut","lastname":"Meyer","formation":"avf-276"}
{ "index": { "_id": 243}}
{"@timestamp":"2017-10-17T16:21:08Z","firstname":"Alexandre","lastname":"Martin","formation":"jhs-895"}
{ "index": { "_id": 244}}
{"@timestamp":"2017-05-25T12:47:33Z","firstname":"Gabriel","lastname":"Renard","formation":"toq-037"}
{ "index": { "_id": 245}}
{"@timestamp":"2017-07-05T07:10:52Z","firstname":"Christiane","lastname":"Pages","formation":"nqs-997"}
{ "index": { "_id": 246}}
{"@timestamp":"2017-04-08T02:16:25Z","firstname":"Alexandre","lastname":"Roussel","formation":"ELK-01"}
{ "index": { "_id": 247}}
{"@timestamp":"2017-04-04T10:46:31Z","firstname":"Marcel","lastname":"Pottier","formation":"bqi-940"}
{ "index": { "_id": 248}}
{"@timestamp":"2017-10-22T02:04:26Z","firstname":"Kevin","lastname":"Texier","formation":"adn-304"}
{ "index": { "_id": 249}}
{"@timestamp":"2017-07-16T22:48:12Z","firstname":"Kevin","lastname":"Mary","formation":"xsp-013"}
{ "index": { "_id": 250}}
{"@timestamp":"2017-06-22T08:24:01Z","firstname":"Constance","lastname":"Martin","formation":"pdy-903"}
{ "index": { "_id": 251}}
{"@timestamp":"2017-11-10T22:52:21Z","firstname":"Julien","lastname":"Martin","formation":"kky-983"}
{ "index": { "_id": 252}}
{"@timestamp":"2017-02-08T19:15:04Z","firstname":"Auguste","lastname":"Petit","formation":"ngp-593"}
{ "index": { "_id": 253}}
{"@timestamp":"2017-11-20T17:28:19Z","firstname":"Agathe","lastname":"Jourdan","formation":"ELK-01"}
{ "index": { "_id": 254}}
{"@timestamp":"2017-04-18T01:12:40Z","firstname":"St\u00e9phanie","lastname":"Lesage","formation":"xdh-919"}
{ "index": { "_id": 255}}
{"@timestamp":"2017-12-31T00:44:30Z","firstname":"Margaux","lastname":"Legrand","formation":"zsx-873"}
{ "index": { "_id": 256}}
{"@timestamp":"2017-04-24T18:10:55Z","firstname":"\u00c9dith","lastname":"Ollivier","formation":"nvf-634"}
{ "index": { "_id": 257}}
{"@timestamp":"2017-02-23T16:26:47Z","firstname":"Charlotte","lastname":"Guilbert","formation":"ypi-438"}
{ "index": { "_id": 258}}
{"@timestamp":"2017-05-26T23:17:07Z","firstname":"Jacques","lastname":"Ledoux","formation":"ELK-01"}
{ "index": { "_id": 259}}
{"@timestamp":"2017-04-28T19:26:56Z","firstname":"Ren\u00e9e","lastname":"Navarro","formation":"ELK-01"}
{ "index": { "_id": 260}}
{"@timestamp":"2017-03-08T22:09:07Z","firstname":"Antoine","lastname":"Blot","formation":"jps-332"}
{ "index": { "_id": 261}}
{"@timestamp":"2017-10-26T08:24:27Z","firstname":"Augustin","lastname":"Riou","formation":"sya-194"}
{ "index": { "_id": 262}}
{"@timestamp":"2017-11-16T18:58:29Z","firstname":"Louise","lastname":"Albert","formation":"hkh-899"}
{ "index": { "_id": 263}}
{"@timestamp":"2017-04-01T05:49:19Z","firstname":"Luc","lastname":"Hernandez","formation":"ELK-01"}
{ "index": { "_id": 264}}
{"@timestamp":"2017-05-28T18:22:49Z","firstname":"Kevin","lastname":"Gimenez","formation":"ELK-01"}
{ "index": { "_id": 265}}
{"@timestamp":"2017-08-06T02:16:53Z","firstname":"Roland","lastname":"Gaudin","formation":"ops-663"}
{ "index": { "_id": 266}}
{"@timestamp":"2017-01-12T12:09:52Z","firstname":"Juliette","lastname":"Arnaud","formation":"ELK-01"}
{ "index": { "_id": 267}}
{"@timestamp":"2017-04-09T00:22:16Z","firstname":"Gilles","lastname":"Jourdan","formation":"hqu-108"}
{ "index": { "_id": 268}}
{"@timestamp":"2017-04-26T11:23:56Z","firstname":"Christiane","lastname":"Chauvin","formation":"ELK-01"}
{ "index": { "_id": 269}}
{"@timestamp":"2017-01-27T11:05:02Z","firstname":"Thomas","lastname":"Pichon","formation":"zsv-387"}
{ "index": { "_id": 270}}
{"@timestamp":"2017-12-12T19:48:56Z","firstname":"Marcel","lastname":"Jacquot","formation":"nhz-062"}
{ "index": { "_id": 271}}
{"@timestamp":"2017-01-28T08:50:34Z","firstname":"\u00c9ric","lastname":"Lopes","formation":"fyn-712"}
{ "index": { "_id": 272}}
{"@timestamp":"2017-02-18T07:01:19Z","firstname":"Kevin","lastname":"Pires","formation":"dds-258"}
{ "index": { "_id": 273}}
{"@timestamp":"2017-02-01T21:06:25Z","firstname":"Suzanne","lastname":"Martins","formation":"ELK-01"}
{ "index": { "_id": 274}}
{"@timestamp":"2017-05-04T02:18:13Z","firstname":"R\u00e9my","lastname":"Martin","formation":"ieu-069"}
{ "index": { "_id": 275}}
{"@timestamp":"2017-03-09T18:15:45Z","firstname":"Fr\u00e9d\u00e9ric","lastname":"Marchal","formation":"lrk-032"}
{ "index": { "_id": 276}}
{"@timestamp":"2017-05-09T07:13:52Z","firstname":"Christelle","lastname":"Lesage","formation":"ELK-01"}
{ "index": { "_id": 277}}
{"@timestamp":"2017-02-17T11:18:13Z","firstname":"Yves","lastname":"Vidal","formation":"vrh-173"}
{ "index": { "_id": 278}}
{"@timestamp":"2017-12-27T11:16:47Z","firstname":"Claude","lastname":"Guichard","formation":"kib-629"}
{ "index": { "_id": 279}}
{"@timestamp":"2017-11-18T08:01:25Z","firstname":"Marine","lastname":"Guibert","formation":"whu-339"}
{ "index": { "_id": 280}}
{"@timestamp":"2017-03-17T05:59:49Z","firstname":"Suzanne","lastname":"Deschamps","formation":"cpq-625"}
{ "index": { "_id": 281}}
{"@timestamp":"2017-01-06T03:15:26Z","firstname":"Maggie","lastname":"Cohen","formation":"rob-551"}
{ "index": { "_id": 282}}
{"@timestamp":"2017-06-19T00:20:33Z","firstname":"Laure","lastname":"Michel","formation":"phu-138"}
{ "index": { "_id": 283}}
{"@timestamp":"2017-11-03T05:10:59Z","firstname":"S\u00e9bastien","lastname":"Jacquot","formation":"ELK-01"}
{ "index": { "_id": 284}}
{"@timestamp":"2017-05-01T19:03:50Z","firstname":"Kevin","lastname":"Lopes","formation":"ELK-01"}
{ "index": { "_id": 285}}
{"@timestamp":"2017-08-10T01:04:24Z","firstname":"\u00c9mile","lastname":"Martin","formation":"tzd-473"}
{ "index": { "_id": 286}}
{"@timestamp":"2017-06-23T11:16:35Z","firstname":"Andr\u00e9","lastname":"Michel","formation":"jug-365"}
{ "index": { "_id": 287}}
{"@timestamp":"2017-08-01T22:18:30Z","firstname":"Virginie","lastname":"Coulon","formation":"ELK-01"}
{ "index": { "_id": 288}}
{"@timestamp":"2017-08-29T12:50:59Z","firstname":"Adrien","lastname":"Raymond","formation":"ELK-01"}
{ "index": { "_id": 289}}
{"@timestamp":"2017-01-22T16:07:25Z","firstname":"Augustin","lastname":"Wagner","formation":"aoi-359"}
{ "index": { "_id": 290}}
{"@timestamp":"2017-12-31T01:09:13Z","firstname":"Aim\u00e9","lastname":"Monnier","formation":"vas-931"}
{ "index": { "_id": 291}}
{"@timestamp":"2017-09-30T10:47:18Z","firstname":"St\u00e9phane","lastname":"Jacquet","formation":"gtj-925"}
{ "index": { "_id": 292}}
{"@timestamp":"2017-07-30T14:58:36Z","firstname":"Ren\u00e9","lastname":"Pascal","formation":"ucu-514"}
{ "index": { "_id": 293}}
{"@timestamp":"2017-02-15T17:47:33Z","firstname":"Ren\u00e9e","lastname":"Collin","formation":"ELK-01"}
{ "index": { "_id": 294}}
{"@timestamp":"2017-04-24T18:17:14Z","firstname":"Julien","lastname":"Martin","formation":"exs-372"}
{ "index": { "_id": 295}}
{"@timestamp":"2017-04-24T06:11:28Z","firstname":"Emmanuelle","lastname":"Dupont","formation":"duo-340"}
{ "index": { "_id": 296}}
{"@timestamp":"2017-11-11T19:35:34Z","firstname":"Victoire","lastname":"Raymond","formation":"ELK-01"}
{ "index": { "_id": 297}}
{"@timestamp":"2017-10-12T16:28:13Z","firstname":"Nath","lastname":"Guillon","formation":"bso-902"}
{ "index": { "_id": 298}}
{"@timestamp":"2017-01-09T06:33:01Z","firstname":"Honor\u00e9","lastname":"Munoz","formation":"bjw-755"}
{ "index": { "_id": 299}}
{"@timestamp":"2017-05-05T17:28:41Z","firstname":"Kevin","lastname":"Martin","formation":"ELK-01"}
